src/RESULT.vcd
$date
     Mar 25, 2021       18:02:40
$end

$version
 SystemC 2.3.3-Accellera --- Mar 17 2021 12:59:19
$end

$timescale
     1 ps
$end

$scope module SystemC $end
$var wire    1  aaaaa  clock       $end
$var wire   32  aaaab  master_datain [31:0]  $end
$var wire   32  aaaac  slave_datain [31:0]  $end
$var wire   32  aaaad  master_addr [31:0]  $end
$var wire   32  aaaae  slave_addr [31:0]  $end
$var wire    1  aaaaf  slave_rw       $end
$var wire    1  aaaag  interrupt       $end
$var wire    1  aaaah  reset       $end
$var wire   32  aaaai  SOURCE [31:0]  $end
$var wire   32  aaaaj  TARGET [31:0]  $end
$var wire   32  aaaak  SIZE [31:0]  $end
$var wire    1  aaaal  START_CLEAR       $end
$var wire    8  aaaam  CONTROL_REG_0 [7:0]  $end
$var wire    8  aaaan  CONTROL_REG_1 [7:0]  $end
$var wire    8  aaaao  CONTROL_REG_2 [7:0]  $end
$var wire    8  aaaap  CONTROL_REG_3 [7:0]  $end
$var wire    8  aaaaq  CONTROL_REG_4 [7:0]  $end
$var wire    8  aaaar  CONTROL_REG_5 [7:0]  $end
$var wire    8  aaaas  CONTROL_REG_6 [7:0]  $end
$var wire    8  aaaat  CONTROL_REG_7 [7:0]  $end
$var wire    8  aaaau  CONTROL_REG_8 [7:0]  $end
$var wire    8  aaaav  CONTROL_REG_9 [7:0]  $end
$var wire    8  aaaaw  CONTROL_REG_10 [7:0]  $end
$var wire    8  aaaax  CONTROL_REG_11 [7:0]  $end
$var wire    8  aaaay  CONTROL_REG_12 [7:0]  $end
$var wire   32  aaaaz  DMA_BASE_addr [31:0]  $end
$var wire    1  aaaba  cs       $end
$var wire    1  aaabb  we       $end
$var wire    1  aaabc  oe       $end
$var wire   32  aaabd  m_mem_0 [31:0]  $end
$var wire   32  aaabe  m_mem_1 [31:0]  $end
$var wire   32  aaabf  m_mem_2 [31:0]  $end
$var wire   32  aaabg  m_mem_3 [31:0]  $end
$var wire   32  aaabh  m_mem_4 [31:0]  $end
$var wire   32  aaabi  m_mem_5 [31:0]  $end
$var wire   32  aaabj  m_mem_6 [31:0]  $end
$var wire   32  aaabk  m_mem_7 [31:0]  $end
$var wire   32  aaabl  m_mem_8 [31:0]  $end
$var wire   32  aaabm  m_mem_9 [31:0]  $end
$var wire   32  aaabn  m_mem_10 [31:0]  $end
$var wire   32  aaabo  m_mem_11 [31:0]  $end
$var wire   32  aaabp  m_mem_12 [31:0]  $end
$var wire   32  aaabq  m_mem_13 [31:0]  $end
$var wire   32  aaabr  m_mem_14 [31:0]  $end
$var wire   32  aaabs  m_mem_15 [31:0]  $end
$var wire   32  aaabt  m_dataout [31:0]  $end
$var wire   32  aaabu  m_datain [31:0]  $end
$var wire   32  aaabv  m_address [31:0]  $end
$var wire    1  aaabw  x_interrupt       $end
$var wire    1  aaabx  clear       $end
$var wire    1  aaaby  slave_rw       $end
$var wire   32  aaabz  slave_data [31:0]  $end
$var wire   32  aaaca  slave_addr [31:0]  $end
$var wire    1  aaacb  master_rw       $end
$var wire   32  aaacc  master_data_out [31:0]  $end
$var wire   32  aaacd  master_addr [31:0]  $end
$upscope $end
$enddefinitions  $end

$comment
All initial values are dumped below at time 0 sec = 0 timescale units.
$end

$dumpvars
1aaaaa
b0 aaaab
b0 aaaac
b0 aaaad
b0 aaaae
0aaaaf
1aaaag
0aaaah
b0 aaaai
b0 aaaaj
b0 aaaak
0aaaal
b0 aaaam
b0 aaaan
b0 aaaao
b0 aaaap
b0 aaaaq
b0 aaaar
b0 aaaas
b0 aaaat
b0 aaaau
b0 aaaav
b0 aaaaw
b0 aaaax
b0 aaaay
b1111011 aaaaz
0aaaba
0aaabb
0aaabc
b0 aaabd
b1 aaabe
b10 aaabf
b11 aaabg
b100 aaabh
b101 aaabi
b110 aaabj
b111 aaabk
b1000 aaabl
b1001 aaabm
b1010 aaabn
b1011 aaabo
b1100 aaabp
b1101 aaabq
b1110 aaabr
b1111 aaabs
b0 aaabt
b0 aaabu
b0 aaabv
1aaabw
0aaabx
0aaaby
b0 aaabz
b0 aaaca
0aaacb
b0 aaacc
b0 aaacd
$end

#5000
0aaaaa

#10000
1aaaaa
1aaaah
1aaabx

#15000
0aaaaa

#20000
1aaaaa
0aaaag
0aaabw

#25000
0aaaaa

#30000
1aaaaa
b1 aaaae
b1 aaaap
b1 aaaca

#35000
0aaaaa

#40000
1aaaaa
b1010 aaaae
b1010 aaaat
b1010 aaaca

#45000
0aaaaa

#50000
1aaaaa
b11 aaaac
b11 aaaax
b11 aaabz

#55000
0aaaaa

#60000
1aaaaa
b1 aaaac
b1 aaaay
b1 aaabz

#65000
0aaaaa

#70000
1aaaaa
1aaaaf
b1 aaaai
0aaabx
1aaaby

#75000
0aaaaa

#80000
1aaaaa
b1010 aaaaj

#85000
0aaaaa

#90000
1aaaaa
b11 aaaak

#95000
0aaaaa

#100000
1aaaaa
1aaaal

#105000
0aaaaa

#110000
1aaaaa

#115000
0aaaaa

#120000
1aaaaa

#125000
0aaaaa

#130000
1aaaaa
b1 aaaad
1aaaba
1aaabc
b1 aaabv
1aaacb
b1 aaacd

#135000
0aaaaa

#140000
1aaaaa
b1 aaaab
b1 aaabt

#145000
0aaaaa

#150000
1aaaaa
b1010 aaaad
b10 aaaak
1aaabb
0aaabc
b1 aaabu
b1010 aaabv
0aaacb
b1 aaacc
b1010 aaacd

#155000
0aaaaa

#160000
1aaaaa
b1 aaabn

#165000
0aaaaa

#170000
1aaaaa
b10 aaaad
0aaabb
1aaabc
b10 aaabv
1aaacb
b10 aaacd

#175000
0aaaaa

#180000
1aaaaa
b10 aaaab
b10 aaabt

#185000
0aaaaa

#190000
1aaaaa
b1011 aaaad
b1 aaaak
1aaabb
0aaabc
b10 aaabu
b1011 aaabv
0aaacb
b10 aaacc
b1011 aaacd

#195000
0aaaaa

#200000
1aaaaa
b10 aaabo

#205000
0aaaaa

#210000
1aaaaa
b11 aaaad
0aaabb
1aaabc
b11 aaabv
1aaacb
b11 aaacd

#215000
0aaaaa

#220000
1aaaaa
b11 aaaab
b11 aaabt

#225000
0aaaaa

#230000
1aaaaa
b1100 aaaad
b0 aaaak
1aaabb
0aaabc
b11 aaabu
b1100 aaabv
0aaacb
b11 aaacc
b1100 aaacd

#235000
0aaaaa

#240000
1aaaaa
b11 aaabp

#245000
0aaaaa

#250000
1aaaaa
1aaaag
0aaaba
0aaabb
1aaabw

#255000
0aaaaa

#260000
1aaaaa
1aaabx

#265000
0aaaaa

#270000
1aaaaa
0aaaag
0aaaal
b0 aaaay
0aaabw

#275000
0aaaaa

#280000
1aaaaa

#285000
0aaaaa

#290000
1aaaaa

#295000
0aaaaa

#300000
1aaaaa
b11 aaaak

#305000
0aaaaa

#310000
1aaaaa

#315000
0aaaaa

#320000
1aaaaa
0aaaaf
0aaaby

#325000
0aaaaa

#330000
1aaaaa
b1101 aaaae
b1101 aaaap
b1101 aaaca

#335000
0aaaaa

#340000
1aaaaa
b101 aaaae
b101 aaaat
b101 aaaca

#345000
0aaaaa

#350000
1aaaaa
b10 aaaac
b10 aaaax
b10 aaabz

#355000
0aaaaa

#360000
1aaaaa
b1 aaaac
b1 aaaay
b1 aaabz

#365000
0aaaaa

#370000
1aaaaa
1aaaaf
b1101 aaaai
0aaabx
1aaaby

#375000
0aaaaa

#380000
1aaaaa
b101 aaaaj

#385000
0aaaaa

#390000
1aaaaa
b10 aaaak

#395000
0aaaaa

#400000
1aaaaa
1aaaal

#405000
0aaaaa

#410000
1aaaaa

#415000
0aaaaa

#420000
1aaaaa

#425000
0aaaaa

#430000
1aaaaa
b1101 aaaad
1aaaba
1aaabc
b1101 aaabv
1aaacb
b1101 aaacd

#435000
0aaaaa

#440000
1aaaaa
b1101 aaaab
b1101 aaabt

#445000
0aaaaa

#450000
1aaaaa
b101 aaaad
b1 aaaak
1aaabb
0aaabc
b1101 aaabu
b101 aaabv
0aaacb
b1101 aaacc
b101 aaacd

#455000
0aaaaa

#460000
1aaaaa
b1101 aaabi

#465000
0aaaaa

#470000
1aaaaa
b1110 aaaad
0aaabb
1aaabc
b1110 aaabv
1aaacb
b1110 aaacd

#475000
0aaaaa

#480000
1aaaaa
b1110 aaaab
b1110 aaabt

#485000
0aaaaa

#490000
1aaaaa
b110 aaaad
b0 aaaak
1aaabb
0aaabc
b1110 aaabu
b110 aaabv
0aaacb
b1110 aaacc
b110 aaacd

#495000
0aaaaa

#500000
1aaaaa
b1110 aaabj

#505000
0aaaaa

#510000
1aaaaa
1aaaag
0aaaba
0aaabb
1aaabw

